word2vec like julia
…
What are some analogies we can find in this podcast corpus? Lets write a little function that will find the answer to token1 - token2 + token 3 = ???.

analogy <- function(df, token1, token2, token3) {
    df %>%
        widely(~ . %*% (.[token1, ] - .[token2, ] + .[token3, ]), sort = TRUE)(item1, dimension, value) %>%
        select(-item2)
    
}

## operating systems
tidy_word_vectors %>%
    analogy("mac", "apple", "microsoft") # xp, vulnerabilities, pc

## # A tibble: 5,561 x 2
##    item1        value
##    <chr>        <dbl>
##  1 microsoft   0.0787
##  2 mac         0.0763
##  3 windows     0.0417
##  4 addresses   0.0356
##  5 address     0.0349
##  6 vista       0.0275
##  7 ip          0.0267
##  8 xp          0.0261
##  9 space       0.0246
## 10 microsoft's 0.0236
## # ... with 5,551 more rows

tidy_word_vectors %>%
    analogy("computer", "microsoft", "apple") #  apple, computer, ios, iphone

## # A tibble: 5,561 x 2
##    item1     value
##    <chr>     <dbl>
##  1 computer 0.0849
##  2 apple    0.0696
##  3 device   0.0336
##  4 iphone   0.0293
##  5 usb      0.0290
##  6 ios      0.0285
##  7 ipad     0.0282
##  8 drive    0.0277
##  9 my       0.0270
## 10 student  0.0250
## # ... with 5,551 more rows

tidy_word_vectors %>%
    analogy("steve", "spinrite", "apple")

## # A tibble: 5,561 x 2
##    item1    value
##    <chr>    <dbl>
##  1 steve   0.169 
##  2 leo     0.142 
##  3 apple   0.0863
##  4 yeah    0.0837
##  5 apple's 0.0678
##  6 i       0.0457
##  7 right   0.0447
##  8 you     0.0429
##  9 oh      0.0404
## 10 yup     0.0390
## # ... with 5,551 more rows

tidy_word_vectors %>%
    analogy("steve", "spinrite", "microsoft")

## # A tibble: 5,561 x 2
##    item1      value
##    <chr>      <dbl>
##  1 steve     0.163 
##  2 leo       0.133 
##  3 microsoft 0.0855
##  4 yeah      0.0791
##  5 right     0.0527
##  6 yes       0.0457
##  7 you       0.0455
##  8 apple's   0.0433
##  9 i         0.0428
## 10 oh        0.0425
## # ... with 5,551 more rows

tidy_word_vectors %>%
    analogy("computer", "wifi", "bluetooth") # machine, off, existing, radio

## # A tibble: 5,561 x 2
##    item1      value
##    <chr>      <dbl>
##  1 computer  0.0915
##  2 bluetooth 0.0535
##  3 system    0.0285
##  4 server    0.0284
##  5 your      0.0271
##  6 science   0.0254
##  7 user      0.0249
##  8 advanced  0.0244
##  9 national  0.0243
## 10 someone   0.0232
## # ... with 5,551 more rows

tidy_word_vectors %>% analogy("pc", "screen", "computer")

## # A tibble: 5,561 x 2
##    item1      value
##    <chr>      <dbl>
##  1 computer  0.0909
##  2 pc        0.0825
##  3 machine   0.0377
##  4 hardware  0.0356
##  5 software  0.0324
##  6 virtual   0.0315
##  7 machines  0.0313
##  8 computers 0.0313
##  9 windows   0.0276
## 10 usb       0.0267
## # ... with 5,551 more rows

# pc minus a screen, plus computer is virtual, vmware, workstation, server

tidy_word_vectors %>%
    analogy("steve", "spinrite", "leo")

## # A tibble: 5,561 x 2
##    item1   value
##    <chr>   <dbl>
##  1 steve  0.315 
##  2 leo    0.296 
##  3 yeah   0.155 
##  4 i      0.107 
##  5 you    0.0861
##  6 that's 0.0847
##  7 right  0.0831
##  8 oh     0.0825
##  9 it's   0.0753
## 10 yes    0.0735
## # ... with 5,551 more rows
…
